French Army survivors after key battles to and from Moscow 1812 — minard_troops • mapswrData
…
Minard, Charles Joseph. 1869. "Tableaux graphiques et cartes figuratives." Paris: Hachette.

Arthur H. Robinson (1967), "The Thematic Maps of Charles Joseph Minard", Imago Mundi, Vol. 21, (1967), pp. 95–108

Edward Tufte (1983), "The Visual Display of Quantitative Information", Graphics Press, Cheshire, Connecticut.

    See also

    minard_cities for the city data and minard_temps for the temperature data.

    Examples

minard_troops
#> # A tibble: 51 × 5
#>    survivors direction group   lon   lat
#>        <dbl> <chr>     <dbl> <dbl> <dbl>
#>  1    340000 A             1  24    54.9
#>  2    340000 A             1  24.5  55  
#>  3    340000 A             1  25.5  54.5
#>  4    320000 A             1  26    54.7
#>  5    300000 A             1  27    54.8
#>  6    280000 A             1  28    54.9
#>  7    240000 A             1  28.5  55  
#>  8    210000 A             1  29    55.1
#>  9    180000 A             1  30    55.2
#> 10    175000 A             1  30.3  55.3
#> # ℹ 41 more rows
…
